ST558 - Project 1
…
     SEX PWGTP MAR SCHL
[1,] "2" "6"   "5" "24"
[2,] "2" "23"  "2" "24"
[3,] "1" "23"  "3" "24"
[4,] "1" "80"  "5" "24"
[5,] "1" "16"  "1" "24"
[6,] "1" "107" "3" "24"

Now that the matrix is in the desired form, we use the as_tibble() function from the dplyr package to convert it into a tibble.

parsed_final <- as_tibble(parsed_data)
parsed_final

# A tibble: 44,079 × 4
   SEX   PWGTP MAR   SCHL 
   <chr> <chr> <chr> <chr>
 1 2     6     5     24   
 2 2     23    2     24   
 3 1     23    3     24   
 4 1     80    5     24   
 5 1     16    1     24   
 6 1     107   3     24   
 7 2     10    5     24   
 8 1     22    1     24   
 9 2     127   5     24   
10 2     46    5     24   
# ℹ 44,069 more rows
…
  #finally we return the desired tibble
 return_tbl
  
  }
  
}

Here we test the function.

query(year = 2016, num_var = c('GRPIP', 'JWDP'), cat_var = c('HISPEED'), geography = 'Delaware')

# A tibble: 8,873 × 5
   PWGTP GRPIP JWDP       HISPEED                                        state
   <dbl> <dbl> <Period>   <fct>                                          <chr>
 1    90     0 15H 5M 0S  Yes                                            10   
 2   153     0 15H 5M 0S  Yes                                            10   
 3    17     0 NA         N/A (GQ/vacant/no paid access to the internet) 10   
 4    19     0 NA         N/A (GQ/vacant/no paid access to the internet) 10   
 5    34     0 NA         No                                             10   
 6    65     0 NA         No                                             10   
 7    80     0 NA         No                                             10   
 8    66     0 NA         No                                             10   
 9    65     0 NA         No                                             10   
10    61     0 18H 52M 0S Yes                                            10   
# ℹ 8,863 more rows
Finally, we define a query function that allows the user to specify multiple years and returns the desired tibble with a year variable. We call this function multiyr_query. It will have the same arguments and defaults as the query function, except the year argument will be changed to yrs, which will take a vector of desired years, instead of a single year.

multiyr_query <- function(yrs = c(2022), num_var = c('AGEP'), cat_var = c('SEX'), geography = 'Iowa'){
  init_lst <- list()
  for (i in 1:length(yrs)){
    init_lst[[i]] <- tibble('year' = yrs[i], query(year = yrs[i], num_var, cat_var, geography))
  }
  bind_rows(init_lst)
}

Test themultiyr_query function.

multiyr_query(yrs = c(2017, 2021), num_var = c('GASP'), cat_var = c('HISPEED'), geography = 'Delaware')

# A tibble: 18,367 × 5
    year PWGTP  GASP HISPEED state
   <dbl> <dbl> <dbl> <fct>   <chr>
 1  2017    12     2 Yes     10   
 2  2017    12     2 Yes     10   
 3  2017   293     3 Yes     10   
 4  2017   405     3 Yes     10   
 5  2017   405     3 Yes     10   
 6  2017   105    70 No      10   
 7  2017   181    70 No      10   
 8  2017   116    70 No      10   
 9  2017   372     3 Yes     10   
10  2017   148    30 Yes     10   
# ℹ 18,357 more rows
…
